IS415-GAA - Hands-on_Ex02
…
Warning: `funs()` was deprecated in dplyr 0.8.0.
ℹ Please use a list of either functions or lambdas:

# Simple named list: list(mean = mean, median = median)

# Auto named with `tibble::lst()`: tibble::lst(mean, median)

# Using lambdas list(~ mean(., trim = .2), ~ median(., na.rm = TRUE))

popdata2020

# A tibble: 234 × 7
   PA         SZ                     YOUNG ECONOMY_ACTIVE  AGED TOTAL DEPENDENCY
   <chr>      <chr>                  <dbl>          <dbl> <dbl> <dbl>      <dbl>
 1 ANG MO KIO ANG MO KIO TOWN CENTRE  1440           2640   770  4850      0.837
 2 ANG MO KIO CHENG SAN               6660          15380  6080 28120      0.828
 3 ANG MO KIO CHONG BOON              6150          13970  6450 26570      0.902
 4 ANG MO KIO KEBUN BAHRU             5500          12040  5080 22620      0.879
 5 ANG MO KIO SEMBAWANG HILLS         2130           3390  1270  6790      1.00 
 6 ANG MO KIO SHANGRI-LA              3970           8430  3540 15940      0.891
 7 ANG MO KIO TAGORE                  2220           4160  1520  7900      0.899
 8 ANG MO KIO TOWNSVILLE              4720          11430  5050 21200      0.855
 9 ANG MO KIO YIO CHU KANG EAST       1190           2230   740  4160      0.865
10 ANG MO KIO YIO CHU KANG WEST       6610          12810  4680 24100      0.881
# … with 224 more rows
…
