IS415-GAA - Take-home Exercise 3: Predicting HDB Public Housing Resale Pricies using Geographically Weighted Methods
…
  resale_sub$LATITUDE[i] <- temp_output$results.LATITUDE
  resale_sub$LONGITUDE[i] <- temp_output$results.LONGITUDE
}

Let us save it into a RDS object

saveRDS(resale_sub, file="resale_sub", compress=FALSE)

We will then assign the RDS object to resale_sub

resale_sub <-readRDS("resale_sub")
resale_sub

# A tibble: 13,780 × 8
   month   town       flat_type block street_name       storey…¹ floor…² remai…³
   <chr>   <chr>      <chr>     <chr> <chr>             <chr>      <dbl>   <dbl>
 1 2021-01 ANG MO KIO 3 ROOM    331   ANG MO KIO AVE 1  04 TO 06      68    59  
 2 2021-01 ANG MO KIO 3 ROOM    534   ANG MO KIO AVE 10 04 TO 06      68    58.2
 3 2021-01 ANG MO KIO 3 ROOM    561   ANG MO KIO AVE 10 01 TO 03      68    58.1
 4 2021-01 ANG MO KIO 3 ROOM    170   ANG MO KIO AVE 4  07 TO 09      60    64.2
 5 2021-01 ANG MO KIO 3 ROOM    463   ANG MO KIO AVE 10 04 TO 06      68    58.2
 6 2021-01 ANG MO KIO 3 ROOM    542   ANG MO KIO AVE 10 04 TO 06      68    59.1
 7 2021-01 ANG MO KIO 3 ROOM    170   ANG MO KIO AVE 4  07 TO 09      60    64  
 8 2021-01 ANG MO KIO 3 ROOM    216   ANG MO KIO AVE 1  04 TO 06      73    54.3
 9 2021-01 ANG MO KIO 3 ROOM    121   ANG MO KIO AVE 3  04 TO 06      67    56.8
10 2021-01 ANG MO KIO 3 ROOM    212   ANG MO KIO AVE 3  04 TO 06      67    55.3
# … with 13,770 more rows, and abbreviated variable names ¹​storey_range,
#   ²​floor_area_sqm, ³​remaining_lease_year
…
